{
    "mapper": "bwa-mem",
    "reference": ["/path/to/reference", "/path/to/another/reference"],
    "read1": "/path/to/read1",
    "output": "/path/to/output/folder",
    "options": "\"-M\"",
    "noreport": true
}
